{
  "project_info": {
    "project_number": "1068871292293",
    "firebase_url": "https://quotes-9b325.firebaseio.com",
    "project_id": "quotes-9b325",
    "storage_bucket": "quotes-9b325.appspot.com"
  },
  "client": [
    {
      "client_info": {
        "mobilesdk_app_id": "1:1068871292293:android:19e22052d3a4b8e2",
        "android_client_info": {
          "package_name": "ca.qc.dawsoncollege.qdpjbnerdquotes"
        }
      },
      "oauth_client": [
        {
          "client_id": "1068871292293-g4rejv82e4tcj3r2gl02gkravsfm7l9f.apps.googleusercontent.com",
          "client_type": 3
        }
      ],
      "api_key": [
        {
          "current_key": "AIzaSyD_5BsfJE2ED_8LbNhhxjGnn0x5c-GNCSY"
        }
      ],
      "services": {
        "analytics_service": {
          "status": 1
        },
        "appinvite_service": {
          "status": 1,
          "other_platform_oauth_client": []
        },
        "ads_service": {
          "status": 2
        }
      }
    }
  ],
  "configuration_version": "1"
}